{
  "data": [
    {
      "id": 1,
      "timestamp": "2024-12-15T14:30:25.123Z",
      "source_ip": "192.168.1.100",
      "destination_ip": "10.0.0.15",
      "source_port": 54321,
      "destination_port": 80,
      "protocol": "HTTP",
      "packet_size": 1024,
      "severity": "info",
      "is_anomaly": false,
      "anomaly_score": 15,
      "ml_model_used": null,
      "raw_log": "Sample log entry 1"
    },
    {
      "id": 2,
      "timestamp": "2024-12-15T14:29:18.456Z",
      "source_ip": "172.16.0.42",
      "destination_ip": "203.0.113.1",
      "source_port": 12345,
      "destination_port": 443,
      "protocol": "HTTPS",
      "packet_size": 2048,
      "severity": "warning",
      "is_anomaly": false,
      "anomaly_score": 25,
      "ml_model_used": null,
      "raw_log": "Sample log entry 2"
    },
    {
      "id": 3,
      "timestamp": "2024-12-15T14:28:12.789Z",
      "source_ip": "192.168.47.103",
      "destination_ip": "198.51.100.1",
      "source_port": 65432,
      "destination_port": 22,
      "protocol": "SSH",
      "packet_size": 512,
      "severity": "error",
      "is_anomaly": true,
      "anomaly_score": 85,
      "ml_model_used": "RandomForest",
      "raw_log": "Sample log entry 3"
    },
    {
      "id": 4,
      "timestamp": "2024-12-15T14:27:05.321Z",
      "source_ip": "10.10.10.5",
      "destination_ip": "203.0.113.2",
      "source_port": 23456,
      "destination_port": 21,
      "protocol": "FTP",
      "packet_size": 1536,
      "severity": "critical",
      "is_anomaly": true,
      "anomaly_score": 95,
      "ml_model_used": "RandomForest",
      "raw_log": "Sample log entry 4"
    },
    {
      "id": 5,
      "timestamp": "2024-12-15T14:26:58.654Z",
      "source_ip": "192.168.1.100",
      "destination_ip": "10.0.0.15",
      "source_port": 34567,
      "destination_port": 53,
      "protocol": "DNS",
      "packet_size": 256,
      "severity": "info",
      "is_anomaly": false,
      "anomaly_score": 10,
      "ml_model_used": null,
      "raw_log": "Sample log entry 5"
    },
    {
      "id": 6,
      "timestamp": "2024-12-15T14:25:51.987Z",
      "source_ip": "172.16.0.42",
      "destination_ip": "203.0.113.1",
      "source_port": 45678,
      "destination_port": 25,
      "protocol": "SMTP",
      "packet_size": 768,
      "severity": "warning",
      "is_anomaly": false,
      "anomaly_score": 30,
      "ml_model_used": null,
      "raw_log": "Sample log entry 6"
    },
    {
      "id": 7,
      "timestamp": "2024-12-15T14:24:45.123Z",
      "source_ip": "192.168.47.103",
      "destination_ip": "198.51.100.1",
      "source_port": 56789,
      "destination_port": 80,
      "protocol": "HTTP",
      "packet_size": 4096,
      "severity": "error",
      "is_anomaly": true,
      "anomaly_score": 78,
      "ml_model_used": "RandomForest",
      "raw_log": "Sample log entry 7"
    },
    {
      "id": 8,
      "timestamp": "2024-12-15T14:23:38.456Z",
      "source_ip": "10.10.10.5",
      "destination_ip": "203.0.113.2",
      "source_port": 67890,
      "destination_port": 443,
      "protocol": "HTTPS",
      "packet_size": 3072,
      "severity": "info",
      "is_anomaly": false,
      "anomaly_score": 5,
      "ml_model_used": null,
      "raw_log": "Sample log entry 8"
    },
    {
      "id": 9,
      "timestamp": "2024-12-15T14:22:31.789Z",
      "source_ip": "192.168.1.100",
      "destination_ip": "10.0.0.15",
      "source_port": 78901,
      "destination_port": 22,
      "protocol": "SSH",
      "packet_size": 1024,
      "severity": "critical",
      "is_anomaly": true,
      "anomaly_score": 92,
      "ml_model_used": "RandomForest",
      "raw_log": "Sample log entry 9"
    },
    {
      "id": 10,
      "timestamp": "2024-12-15T14:21:25.321Z",
      "source_ip": "172.16.0.42",
      "destination_ip": "203.0.113.1",
      "source_port": 89012,
      "destination_port": 21,
      "protocol": "FTP",
      "packet_size": 2048,
      "severity": "warning",
      "is_anomaly": false,
      "anomaly_score": 35,
      "ml_model_used": null,
      "raw_log": "Sample log entry 10"
    },
    {
      "id": 11,
      "timestamp": "2024-12-15T14:20:18.654Z",
      "source_ip": "192.168.47.103",
      "destination_ip": "198.51.100.1",
      "source_port": 90123,
      "destination_port": 53,
      "protocol": "DNS",
      "packet_size": 512,
      "severity": "info",
      "is_anomaly": false,
      "anomaly_score": 8,
      "ml_model_used": null,
      "raw_log": "Sample log entry 11"
    },
    {
      "id": 12,
      "timestamp": "2024-12-15T14:19:11.987Z",
      "source_ip": "10.10.10.5",
      "destination_ip": "203.0.113.2",
      "source_port": 12345,
      "destination_port": 25,
      "protocol": "SMTP",
      "packet_size": 1536,
      "severity": "error",
      "is_anomaly": true,
      "anomaly_score": 82,
      "ml_model_used": "RandomForest",
      "raw_log": "Sample log entry 12"
    },
    {
      "id": 13,
      "timestamp": "2024-12-15T14:18:05.123Z",
      "source_ip": "192.168.1.100",
      "destination_ip": "10.0.0.15",
      "source_port": 23456,
      "destination_port": 80,
      "protocol": "HTTP",
      "packet_size": 3072,
      "severity": "info",
      "is_anomaly": false,
      "anomaly_score": 12,
      "ml_model_used": null,
      "raw_log": "Sample log entry 13"
    },
    {
      "id": 14,
      "timestamp": "2024-12-15T14:17:58.456Z",
      "source_ip": "172.16.0.42",
      "destination_ip": "203.0.113.1",
      "source_port": 34567,
      "destination_port": 443,
      "protocol": "HTTPS",
      "packet_size": 4096,
      "severity": "warning",
      "is_anomaly": false,
      "anomaly_score": 28,
      "ml_model_used": null,
      "raw_log": "Sample log entry 14"
    },
    {
      "id": 15,
      "timestamp": "2024-12-15T14:16:51.789Z",
      "source_ip": "192.168.47.103",
      "destination_ip": "198.51.100.1",
      "source_port": 45678,
      "destination_port": 22,
      "protocol": "SSH",
      "packet_size": 1024,
      "severity": "critical",
      "is_anomaly": true,
      "anomaly_score": 88,
      "ml_model_used": "RandomForest",
      "raw_log": "Sample log entry 15"
    },
    {
      "id": 16,
      "timestamp": "2024-12-15T14:15:45.321Z",
      "source_ip": "10.10.10.5",
      "destination_ip": "203.0.113.2",
      "source_port": 56789,
      "destination_port": 21,
      "protocol": "FTP",
      "packet_size": 2048,
      "severity": "info",
      "is_anomaly": false,
      "anomaly_score": 15,
      "ml_model_used": null,
      "raw_log": "Sample log entry 16"
    },
    {
      "id": 17,
      "timestamp": "2024-12-15T14:14:38.654Z",
      "source_ip": "192.168.1.100",
      "destination_ip": "10.0.0.15",
      "source_port": 67890,
      "destination_port": 53,
      "protocol": "DNS",
      "packet_size": 512,
      "severity": "error",
      "is_anomaly": true,
      "anomaly_score": 75,
      "ml_model_used": "RandomForest",
      "raw_log": "Sample log entry 17"
    },
    {
      "id": 18,
      "timestamp": "2024-12-15T14:13:31.987Z",
      "source_ip": "172.16.0.42",
      "destination_ip": "203.0.113.1",
      "source_port": 78901,
      "destination_port": 25,
      "protocol": "SMTP",
      "packet_size": 1536,
      "severity": "warning",
      "is_anomaly": false,
      "anomaly_score": 32,
      "ml_model_used": null,
      "raw_log": "Sample log entry 18"
    },
    {
      "id": 19,
      "timestamp": "2024-12-15T14:12:25.123Z",
      "source_ip": "192.168.47.103",
      "destination_ip": "198.51.100.1",
      "source_port": 89012,
      "destination_port": 80,
      "protocol": "HTTP",
      "packet_size": 3072,
      "severity": "info",
      "is_anomaly": false,
      "anomaly_score": 18,
      "ml_model_used": null,
      "raw_log": "Sample log entry 19"
    },
    {
      "id": 20,
      "timestamp": "2024-12-15T14:11:18.456Z",
      "source_ip": "10.10.10.5",
      "destination_ip": "203.0.113.2",
      "source_port": 90123,
      "destination_port": 443,
      "protocol": "HTTPS",
      "packet_size": 4096,
      "severity": "critical",
      "is_anomaly": true,
      "anomaly_score": 91,
      "ml_model_used": "RandomForest",
      "raw_log": "Sample log entry 20"
    }
  ],
  "total": 150,
  "page": 1,
  "limit": 20,
  "hasMore": true
} 